<svg xmlns="http://www.w3.org/2000/svg" width="25" height="25" viewBox="0 0 25 25">
    <g fill="none" fill-rule="evenodd">
        <g>
            <circle cx="12.5" cy="12.5" r="12.5" fill="#CD0037"/>
        </g>
        <path fill="#FFF" d="M6.285 8.058c3.471 0 6.886-.058 10.3-.058C18.463 8 20 9.571 20 11.492c0 1.979-1.593 3.434-3.472 3.434C15.902 17.254 13.797 19 11.35 19 8.39 19 6 16.556 6 13.53V8.35c0-.175.114-.292.285-.292zM8.22 9.164v7.159c-.797-.931-1.253-2.154-1.253-3.492V9.164H8.22zm8.48.116v4.366c1.137 0 2.048-.99 2.048-2.154s-.91-2.153-2.049-2.212z"/>
    </g>
</svg>
